[gd_resource type="StyleBoxFlat" format=3 uid="uid://b8hpip7lhdw48"]

[resource]
bg_color = Color(0.580392, 0.654902, 0.843137, 1)
border_width_left = 2
border_width_top = 2
border_width_right = 2
border_width_bottom = 2
