[gd_scene load_steps=2 format=2]

[ext_resource path="res://addons/nframework/dock/scenes.gd" type="Script" id=1]

[node name="Scenes" type="VBoxContainer"]
offset_right = 499.0
offset_bottom = 184.0
script = ExtResource( 1 )

[node name="Label" type="Label" parent="."]
offset_right = 598.0
offset_bottom = 14.0
text = "Scenes"
align = 1

[node name="Instructions" type="Label" parent="."]
offset_top = 18.0
offset_right = 598.0
offset_bottom = 32.0
text = "select the scene in the filesystem panel, then set as:"

[node name="HSeparator" type="HSeparator" parent="."]
offset_top = 36.0
offset_right = 598.0
offset_bottom = 40.0
