[gd_resource type="AtlasTexture" load_steps=2 format=3 uid="uid://duqmk1m76dr0e"]

[ext_resource type="Texture2D" uid="uid://btum6ndw6whcx" path="res://addons/nframework/assets/ui/nyx-ui.png" id="1"]

[resource]
atlas = ExtResource("1")
region = Rect2(64, 0, 16, 16)
