[gd_resource type="StyleBoxTexture" load_steps=2 format=3 uid="uid://bpynhmh7q6cu4"]

[ext_resource type="Texture2D" path="res://addons/nframework/assets/themes/lowres_tex/scroll-grabber.tres" id="1"]

[resource]
texture = ExtResource("1")
texture_margin_left = 4.0
texture_margin_top = 4.0
texture_margin_right = 4.0
texture_margin_bottom = 4.0
expand_margin_top = 3.0
expand_margin_bottom = 3.0
region_rect = Rect2(0, 0, 12, 12)
