[gd_scene load_steps=2 format=2]

[ext_resource path="res://addons/nframework/modules/wall/wall_poly.gd" type="Script" id=1]

[node name="PolyWall" type="Polygon2D"]
script = ExtResource( 1 )

[node name="StaticBody2D" type="StaticBody2D" parent="."]

[node name="CollisionPolygon2D" type="CollisionPolygon2D" parent="StaticBody2D"]
