[gd_scene load_steps=2 format=3 uid="uid://cl276psak1vey"]

[ext_resource type="Script" path="res://addons/nframework/ui/menu_slider.gd" id="1"]

[node name="MenuSlider" type="HBoxContainer"]
anchors_preset = 10
anchor_right = 1.0
offset_bottom = 16.0
size_flags_horizontal = 3
script = ExtResource("1")

[node name="Label" type="Label" parent="."]
custom_minimum_size = Vector2(64, 0)
layout_mode = 2
text = "MenuSlider"

[node name="HSlider" type="HSlider" parent="."]
layout_mode = 2
size_flags_horizontal = 3
size_flags_vertical = 4
value = 50.0
